{
  "user":[
    {
    "username":"Haritha",
    "password":"Har123"
    },
    {
      "username":"Varun",
      "password":"12345"
      },
      {
        "username":"Somu",
        "password":"123ab"
        }
  ],
  "TimeTable":[
    {
      "id": 1,
      "Period": 1,
      "Day": "Monday",
      "Subject": "Maths"
    },
    {
      "id": 2,
      "Period": 2,
      "Day": "Monday",
      "Subject": "Chemistry"
    },
    {
      "id": 3,
      "Period": 3,
      "Day": "Monday",
      "Subject": "Physics"
    },
    {
      "id": 4,
      "Period": 4,
      "Day": "Monday",
      "Subject": "Chemistry"
    },
    {
      "id": 5,
      "Period": 5,
      "Day": "Monday",
      "Subject": "Lab"
    },
    {
      "id": 6,
      "Period": 1,
      "Day": "Tuesday",
      "Subject": "Chemistry"
      
    },
    {
      "id": 7,
      "Period": 2,
      "Day": "Tuesday",
      "Subject": "Maths"
    },
    {
      "id": 8,
      "Period": 3,
      "Day": "Tuesday",
      "Subject": "Chemistry"
      
    },
    {
      "id": 9,
      "Period": 4,
      "Day": "Tuesday",
      "Subject": "Physics"
    },
    {
      "id": 10,
      "Period": 5,
      "Day": "Tuesday",
      "Subject": "Lab"
    },
    {
      "id": 11,
      "Period": 1,
      "Day": "Wednesday",
      "Subject": "Maths"
    },
    {
      "id": 12,
      "Period": 2,
      "Day": "Wednesday",
      "Subject": "Chemistry"
    },
    {
      "id": 13,
      "Period": 3,
      "Day": "Wednesday",
      "Subject": "Physics"
    },
    {
      "id": 14,
      "Period": 4,
      "Day": "Wednesday",
      "Subject": "Chemistry"
    },
    {
      "id": 15,
      "Period": 5,
      "Day": "Wednesday",
      "Subject": "Lab"
    },
    {
      "id": 16,
      "Period": 1,
      "Day": "Thursday",
      "Subject": "Chemistry"
      
    },
    {
      "id": 17,
      "Period": 2,
      "Day": "Thursday",
      "Subject": "Maths"
    },
    {
      "id": 18,
      "Period": 3,
      "Day": "Thursday",
      "Subject": "Chemistry"
      
    },
    {
      "id": 19,
      "Period": 4,
      "Day": "Thursday",
      "Subject": "Physics"
    }
    
  ],
  "Activities": [
    {
      "id": 1,
      "activity": "Create Project File",
      "subject": "Maths"
    },
    {
      "id": 2,
      "activity": "Create Project File",
      "subject": "Chemistry"
    },
    {
      "id": 3,
      "activity": "Create Project File",
      "subject": "Physics"
    },
    {
      "id": 4,
      "activity": "Problem Solving",
      "subject": "Maths"
    }
  ],
  "Extra_Activity": [
    {
      "id": 1,
      "date": "12/12/2021",
      "activity": "Learned Chapter 12",
      "subject": "Science"
    },
    {
      "id": 2,
      "date": "13/12/2021",
      "activity": "Experiment",
      "subject": "Science"
    },
    {
      "id": 3,
      "date": "14/12/2021",
      "activity": "Lab session",
      "subject": "Science"
    }]
    ,
  "Profile": [
    {
      "id": 1,
      "Name": "John",
      "Phone": "9191919191",
      "Subject": "Science"
    }, {
      "id": 2,
      "Name": "Mallika",
      "Phone": "9292929292",
      "Subject": "Science"
    }, {
      "id": 3,
      "Name": "Lavanya",
      "Phone": "9393939393",
      "Subject": "Science"
    }, {
      "id": 4,
      "Name": "Rahul",
      "Phone": "9494949494",
      "Subject": "Science"
    }, {
      "id": 5,
      "Name": "Murali",
      "Phone": "9595959595",
      "Subject": "Science"
    }
  ]
}